{
    "key": "taxonomy_663a60c44f84c",
    "title": "Project Status",
    "menu_order": 0,
    "active": true,
    "taxonomy": "status",
    "object_type": [
        "projects"
    ],
    "advanced_configuration": true,
    "import_source": "cptui",
    "import_date": 1715101892,
    "labels": {
        "singular_name": "Project Status",
        "name": "Project Status",
        "menu_name": "Project Status",
        "search_items": "Search Project Status",
        "popular_items": "Popular Project Status",
        "all_items": "All Project Status",
        "parent_item": "Parent Project Status",
        "parent_item_colon": "Parent Project Status:",
        "name_field_description": "",
        "slug_field_description": "",
        "parent_field_description": "",
        "desc_field_description": "",
        "edit_item": "Edit Project Status",
        "view_item": "View Project Status",
        "update_item": "Update Project Status name",
        "add_new_item": "Add new Project Status",
        "new_item_name": "New Project Status name",
        "separate_items_with_commas": "Separate Project Status with commas",
        "add_or_remove_items": "Add or remove Project Status",
        "choose_from_most_used": "Choose from the most used Project Status",
        "not_found": "No Project Status found",
        "no_terms": "No Project Status",
        "filter_by_item": "",
        "items_list_navigation": "Project Status list navigation",
        "items_list": "Project Status list",
        "most_used": "",
        "back_to_items": "Back to Project Status",
        "item_link": "",
        "item_link_description": ""
    },
    "description": "",
    "capabilities": {
        "manage_terms": "manage_categories",
        "edit_terms": "manage_categories",
        "delete_terms": "manage_categories",
        "assign_terms": "edit_posts"
    },
    "public": true,
    "publicly_queryable": true,
    "hierarchical": true,
    "show_ui": true,
    "show_in_menu": true,
    "show_in_nav_menus": true,
    "show_in_rest": true,
    "rest_base": "",
    "rest_namespace": "wp\/v2",
    "rest_controller_class": "",
    "show_tagcloud": false,
    "show_in_quick_edit": true,
    "show_admin_column": true,
    "rewrite": {
        "permalink_rewrite": "taxonomy_key",
        "slug": "",
        "with_front": true,
        "rewrite_hierarchical": false
    },
    "query_var": "taxonomy_key",
    "query_var_name": "",
    "default_term": {
        "default_term_enabled": false,
        "default_term_name": "",
        "default_term_slug": "",
        "default_term_description": ""
    },
    "sort": null,
    "meta_box": "default",
    "meta_box_cb": "",
    "meta_box_sanitize_cb": "",
    "modified": 1715101892
}
